Outpatient Survey Analysis
…
Let us look at percent of neutral/dissasatisfied responses across various questions

jhar %>% dplyr::select(one:Twenty.three) %>% gather(key="Question" ,value="Score") %>% group_by(Question) %>% summarise(Neutral_dissatisfied_percent = mean(Score<4)) %>% arrange(desc(Neutral_dissatisfied_percent))

## # A tibble: 23 x 2
##      Question Neutral_dissatisfied_percent
##         <chr>                        <dbl>
##  1       Nine                   0.21393035
##  2     Twelve                   0.20646766
##  3      Seven                   0.17661692
##  4    Fifteen                   0.13930348
##  5        Six                   0.13930348
##  6      Eight                   0.11691542
##  7   Thirteen                   0.08208955
##  8 Twenty.one                   0.06965174
##  9     Twenty                   0.06467662
## 10       Five                   0.05721393
## # ... with 13 more rows

So question 6,7,8,9,12 and 15 have neutral/dissatisfied reponses from greater than 10% of patients and we need to improve on these parameters.

Let us see which questions have the highest percent of very satisfied(5) score.

jhar %>% dplyr::select(one:Twenty.three) %>% gather(key="Question" ,value="Score") %>% group_by(Question) %>% summarise(very_satisfied_percent = mean(Score==5)) %>% arrange(desc(very_satisfied_percent))

## # A tibble: 23 x 2
##        Question very_satisfied_percent
##           <chr>                  <dbl>
##  1          one              0.7263682
##  2         Four              0.6741294
##  3     Nineteen              0.6368159
##  4   twenty.two              0.6318408
##  5        Three              0.6218905
##  6          Two              0.6218905
##  7 Twenty.three              0.5995025
##  8   Twenty.one              0.5945274
##  9          Ten              0.5920398
## 10     Eighteen              0.5895522
## # ... with 13 more rows
…
